<?xml version="1.0" encoding="UTF-8"?>
<testng-results skipped="0" failed="0" ignored="0" total="0" passed="0">
  <reporter-output>
  </reporter-output>
  <suite name="com.qa.store.RunnerTest" duration-ms="8" started-at="2020-03-03T12:28:16 IST" finished-at="2020-03-03T12:28:16 IST">
    <groups>
    </groups>
    <test name="Command line test" duration-ms="8" started-at="2020-03-03T12:28:16 IST" finished-at="2020-03-03T12:28:16 IST">
    </test> <!-- Command line test -->
  </suite> <!-- com.qa.store.RunnerTest -->
</testng-results>
